…
``` r
boot_straps = 
  tibble(
    strap_number = 1:10
  ) |> 
  mutate(
    strap_sample = map(strap_number, \(i) boot_sample(df = sim_df_nonconstant)),
    models = map(strap_sample, \(df) lm(y ~ x, data = df)),
    results = map(models, broom::tidy)
  )

boot_straps |> unnest(strap_sample)
```

    ## # A tibble: 2,500 × 6
    ##    strap_number      x   error     y models results         
    ##           <int>  <dbl>   <dbl> <dbl> <list> <list>          
    ##  1            1  1.41   1.02   7.25  <lm>   <tibble [2 × 5]>
    ##  2            1  1.76  -0.642  6.65  <lm>   <tibble [2 × 5]>
    ##  3            1  0.910  0.169  4.90  <lm>   <tibble [2 × 5]>
    ##  4            1  2.34   0.313  9.34  <lm>   <tibble [2 × 5]>
    ##  5            1  2.49   0.0279 9.50  <lm>   <tibble [2 × 5]>
    ##  6            1  0.309 -0.0513 2.87  <lm>   <tibble [2 × 5]>
    ##  7            1  1.41   1.02   7.25  <lm>   <tibble [2 × 5]>
    ##  8            1  0.699 -0.348  3.75  <lm>   <tibble [2 × 5]>
    ##  9            1  1.19  -0.607  4.97  <lm>   <tibble [2 × 5]>
    ## 10            1 -0.614  0.574  0.731 <lm>   <tibble [2 × 5]>
    ## # ℹ 2,490 more rows
…
