…
``` r
cv_df |> 
  pull(train) |> 
  nth(2) |> 
  as.tibble()
```

    ## Warning: `as.tibble()` was deprecated in tibble 2.0.0.
    ## ℹ Please use `as_tibble()` instead.
    ## ℹ The signature and semantics have changed, see `?as_tibble`.
    ## This warning is displayed once every 8 hours.
    ## Call `lifecycle::last_lifecycle_warnings()` to see where this warning was
    ## generated.

    ## # A tibble: 176 × 3
    ##    range logratio    id
    ##    <int>    <dbl> <int>
    ##  1   390  -0.0504     1
    ##  2   393  -0.0419     3
    ##  3   394  -0.0510     4
    ##  4   396  -0.0599     5
    ##  5   397  -0.0284     6
    ##  6   399  -0.0596     7
    ##  7   400  -0.0399     8
    ##  8   402  -0.0294     9
    ##  9   403  -0.0395    10
    ## 10   405  -0.0476    11
    ## # ℹ 166 more rows
…
