…
nyc_airbnb = 
  nyc_airbnb |> 
  mutate(stars = review_scores_location / 2) |> 
  rename(
    borough = neighbourhood_group,
    neighborhood = neighbourhood) |> 
  filter(borough != "Staten Island") |> 
  select(price, stars, borough, neighborhood, room_type)

# new mutate() at about 10:25 go back to see

nyc_airbnb
```

    ## # A tibble: 40,492 × 5
    ##    price stars borough neighborhood room_type      
    ##    <dbl> <dbl> <chr>   <chr>        <chr>          
    ##  1    99   5   Bronx   City Island  Private room   
    ##  2   200  NA   Bronx   City Island  Private room   
    ##  3   300  NA   Bronx   City Island  Entire home/apt
    ##  4   125   5   Bronx   City Island  Entire home/apt
    ##  5    69   5   Bronx   City Island  Private room   
    ##  6   125   5   Bronx   City Island  Entire home/apt
    ##  7    85   5   Bronx   City Island  Entire home/apt
    ##  8    39   4.5 Bronx   Allerton     Private room   
    ##  9    95   5   Bronx   Allerton     Entire home/apt
    ## 10   125   4.5 Bronx   Allerton     Entire home/apt
    ## # ℹ 40,482 more rows
…
